{
    "@context": "https://doi.org/10.5063/schema/codemeta-2.0",
    "@type": "SoftwareSourceCode",
    "license": "https://spdx.org/licenses/MIT",
    "codeRepository": "git+https://gitlab.com/d8096/health_data_science_tutorials",
    "dateCreated": "2022-04-01",
    "datePublished": "2022-07-07",
    "dateModified": "2022-07-07",
    "downloadUrl": "https://gitlab.com/d8096/health_data_science_tutorials/-/archive/main/health_data_science_tutorials-main.tar.gz",
    "issueTracker": "https://gitlab.com/d8096/health_data_science_tutorials/-/issues",
    "name": "HealthDataScienceTutorial",
    "version": "1.0.0",
    "description": "Tutorials for Health Data Science ",
    "applicationCategory": "DataScience",
    "releaseNotes": "version 0.1.0 (TFCat schema v1.0-rc2)",
    "developmentStatus": "active",
    "isPartOf": "https://maser.lesia.obspm.fr",
    "keywords": [
        "data science",
        "health",
        "R",
        "Python",
        "SQL"
    ],
    "programmingLanguage": [
        "Python 3", "R", "SQL"
    ],
    "softwareRequirements": [
        "Jupyter"
    ],
    "relatedLink": [
        "https://gitlab.com/d8096"
    ],
    "author": [
        {
            "@type": "Person",
            "@id": "https://orcid.org/0000-0002-9546-1808",
            "givenName": "Antoine",
            "familyName": "Lamer",
            "email": "antoinelamer@riseup.net",
            "affiliation": [{
                "@type": "Organization",
                "name": "ULR2694, Metrics, Univ Lille"
            },
            {
                "@type": "Organization",
                "name": "InterHop"
            },
            {
                "@type": "Organization",
                "name": "F2RSM Psy, Fédération Régionale de Recherche en Santé Mentale, Lille"
            }
        ]
        }
    ]
}
